<?xml version="1.0" encoding="UTF-8" standalone="no"?>
<!-- Created with Inkscape (http://www.inkscape.org/) -->

<svg
   xmlns:dc="http://purl.org/dc/elements/1.1/"
   xmlns:cc="http://creativecommons.org/ns#"
   xmlns:rdf="http://www.w3.org/1999/02/22-rdf-syntax-ns#"
   xmlns:svg="http://www.w3.org/2000/svg"
   xmlns="http://www.w3.org/2000/svg"
   xmlns:sodipodi="http://sodipodi.sourceforge.net/DTD/sodipodi-0.dtd"
   xmlns:inkscape="http://www.inkscape.org/namespaces/inkscape"
   width="210mm"
   height="297mm"
   id="svg2"
   version="1.1"
   inkscape:version="0.91pre2 r13516"
   sodipodi:docname="Player.svg"
   inkscape:export-filename="C:\Users\Frederik Simon\Documents\Studium\Game Development 101\DraCo\Assets\Sprites\Player\PlayerWalk\pt_player_idle_02.png"
   inkscape:export-xdpi="90"
   inkscape:export-ydpi="90">
  <defs
     id="defs4" />
  <sodipodi:namedview
     id="base"
     pagecolor="#ffffff"
     bordercolor="#666666"
     borderopacity="1.0"
     inkscape:pageopacity="0.0"
     inkscape:pageshadow="2"
     inkscape:zoom="0.98994949"
     inkscape:cx="121.01947"
     inkscape:cy="357.96438"
     inkscape:document-units="px"
     inkscape:current-layer="layer1"
     showgrid="false"
     inkscape:window-width="1680"
     inkscape:window-height="988"
     inkscape:window-x="-8"
     inkscape:window-y="-8"
     inkscape:window-maximized="1" />
  <metadata
     id="metadata7">
    <rdf:RDF>
      <cc:Work
         rdf:about="">
        <dc:format>image/svg+xml</dc:format>
        <dc:type
           rdf:resource="http://purl.org/dc/dcmitype/StillImage" />
        <dc:title />
      </cc:Work>
    </rdf:RDF>
  </metadata>
  <g
     inkscape:label="Ebene 1"
     inkscape:groupmode="layer"
     id="layer1">
    <g
       id="g4094"
       transform="matrix(1.1904731,0,0,1.1904731,-1170.3846,222.48716)"
       inkscape:export-filename="C:\Users\Frederik Simon\Documents\Studium\Game Development 101\DraCo\Assets\Sprites\Player\PlayerWalk\player_walk_03.png"
       inkscape:export-xdpi="90"
       inkscape:export-ydpi="90">
      <g
         inkscape:export-ydpi="90"
         inkscape:export-xdpi="90"
         inkscape:export-filename="C:\Users\Frederik Simon\Documents\Studium\Game Development 101\DraCo\Assets\Sprites\Player\player_walk.png"
         transform="matrix(0.98610335,0,0,0.98610335,585.30302,-95.501559)"
         id="g3973">
        <path
           sodipodi:type="arc"
           style="fill:none;stroke:#000000;stroke-width:4.77190161;stroke-miterlimit:4;stroke-dasharray:none"
           id="path3975"
           sodipodi:cx="190.41376"
           sodipodi:cy="259.89752"
           sodipodi:rx="97.479721"
           sodipodi:ry="93.43911"
           d="m 287.89348,259.89752 a 97.479721,93.43911 0 0 1 -97.47972,93.43911 97.479721,93.43911 0 0 1 -97.479724,-93.43911 97.479721,93.43911 0 0 1 97.479724,-93.43911 97.479721,93.43911 0 0 1 97.47972,93.43911 z"
           transform="matrix(0.54563198,0,0,0.5692269,81.462058,151.35792)" />
        <path
           transform="matrix(0.06060104,0,0,0.06322162,152.86468,264.5999)"
           d="m 287.89348,259.89752 a 97.479721,93.43911 0 0 1 -97.47972,93.43911 97.479721,93.43911 0 0 1 -97.479724,-93.43911 97.479721,93.43911 0 0 1 97.479724,-93.43911 97.479721,93.43911 0 0 1 97.47972,93.43911 z"
           sodipodi:ry="93.43911"
           sodipodi:rx="97.479721"
           sodipodi:cy="259.89752"
           sodipodi:cx="190.41376"
           id="path3977"
           style="fill:#000000;fill-opacity:1;fill-rule:nonzero;stroke:none"
           sodipodi:type="arc" />
        <path
           sodipodi:type="arc"
           style="fill:none;stroke:#000000;stroke-width:8.26810646;stroke-miterlimit:4;stroke-dasharray:none"
           id="path3979"
           sodipodi:cx="190.41376"
           sodipodi:cy="259.89752"
           sodipodi:rx="97.479721"
           sodipodi:ry="93.43911"
           d="m 287.89348,259.89752 a 97.479721,93.43911 0 0 1 -97.47972,93.43911 97.479721,93.43911 0 0 1 -97.479724,-93.43911 97.479721,93.43911 0 0 1 97.479724,-93.43911 97.479721,93.43911 0 0 1 97.47972,93.43911 z"
           transform="matrix(0.0868186,0,0,0.13055555,149.96202,244.69374)" />
        <path
           style="fill:none;stroke:#000000;stroke-width:2.65940261;stroke-linecap:butt;stroke-linejoin:miter;stroke-miterlimit:4;stroke-opacity:1;stroke-dasharray:none"
           d="m 139.72724,323.85465 c 0,0 12.15726,6.83846 26.59402,0.75983 14.43675,-6.07864 12.15727,-8.35812 12.15727,-8.35812"
           id="path3981"
           inkscape:connector-curvature="0" />
      </g>
      <path
         inkscape:export-ydpi="90"
         inkscape:export-xdpi="90"
         inkscape:export-filename="C:\Users\Frederik Simon\Documents\Studium\Game Development 101\DraCo\Assets\Sprites\Player\player_walk.png"
         sodipodi:nodetypes="sssss"
         inkscape:connector-curvature="0"
         id="path3985"
         d="m 796.71351,261.75703 c 0,4.88156 -6.37049,8.83884 -14.2289,8.83884 -7.8584,0 -14.2289,-3.95728 -14.2289,-8.83884 0,-4.88155 6.97276,-2.64839 14.74947,-4.29314 7.16431,-1.51523 13.70833,-0.58841 13.70833,4.29314 z"
         style="fill:#000000;fill-opacity:1;fill-rule:nonzero;stroke:#999999" />
      <path
         inkscape:export-ydpi="90"
         inkscape:export-xdpi="90"
         inkscape:export-filename="C:\Users\Frederik Simon\Documents\Studium\Game Development 101\DraCo\Assets\Sprites\Player\player_walk.png"
         style="fill:#000000;fill-opacity:1;fill-rule:nonzero;stroke:#999999"
         d="m 769.48035,261.25195 c 0,4.88156 -6.37049,8.83884 -14.2289,8.83884 -7.8584,0 -14.2289,-3.95728 -14.2289,-8.83884 0,-4.88155 6.97276,-2.64839 14.74947,-4.29314 7.16431,-1.51523 13.70833,-0.58841 13.70833,4.29314 z"
         id="path3983"
         inkscape:connector-curvature="0"
         sodipodi:nodetypes="sssss" />
      <path
         inkscape:export-ydpi="90"
         inkscape:export-xdpi="90"
         inkscape:export-filename="C:\Users\Frederik Simon\Documents\Studium\Game Development 101\DraCo\Assets\Sprites\Player\player_walk.png"
         transform="matrix(0.05975889,0,0,0.06234305,736.04339,165.42129)"
         d="m 287.89348,259.89752 a 97.479721,93.43911 0 0 1 -97.47972,93.43911 97.479721,93.43911 0 0 1 -97.479724,-93.43911 97.479721,93.43911 0 0 1 97.479724,-93.43911 97.479721,93.43911 0 0 1 97.47972,93.43911 z"
         sodipodi:ry="93.43911"
         sodipodi:rx="97.479721"
         sodipodi:cy="259.89752"
         sodipodi:cx="190.41376"
         id="path3987"
         style="fill:#000000;fill-opacity:1;fill-rule:nonzero;stroke:none"
         sodipodi:type="arc" />
      <path
         inkscape:export-ydpi="90"
         inkscape:export-xdpi="90"
         inkscape:export-filename="C:\Users\Frederik Simon\Documents\Studium\Game Development 101\DraCo\Assets\Sprites\Player\player_walk.png"
         sodipodi:type="arc"
         style="fill:none;stroke:#000000;stroke-width:8.26810646;stroke-miterlimit:4;stroke-dasharray:none"
         id="path3989"
         sodipodi:cx="190.41376"
         sodipodi:cy="259.89752"
         sodipodi:rx="97.479721"
         sodipodi:ry="93.43911"
         d="m 287.89348,259.89752 a 97.479721,93.43911 0 0 1 -97.47972,93.43911 97.479721,93.43911 0 0 1 -97.479724,-93.43911 97.479721,93.43911 0 0 1 97.479724,-93.43911 97.479721,93.43911 0 0 1 97.47972,93.43911 z"
         transform="matrix(0.08561211,0,0,0.12874127,733.18107,145.79176)" />
      <path
         inkscape:export-ydpi="90"
         inkscape:export-xdpi="90"
         inkscape:export-filename="C:\Users\Frederik Simon\Documents\Studium\Game Development 101\DraCo\Assets\Sprites\Player\player_walk.png"
         style="fill:none;stroke:#000000;stroke-width:2.62244582;stroke-linecap:butt;stroke-linejoin:miter;stroke-miterlimit:4;stroke-opacity:1;stroke-dasharray:none"
         d="m 723.08852,223.8526 c 0,0 11.98831,6.74343 26.22445,0.74927 14.23613,-5.99417 11.98833,-8.24197 11.98833,-8.24197"
         id="path3991"
         inkscape:connector-curvature="0" />
    </g>
    <g
       id="g3713"
       inkscape:export-filename="C:\Users\Frederik Simon\Documents\Studium\Game Development 101\DraCo\Assets\Sprites\Player\PlayerWalk\player_walk_03.png"
       inkscape:export-xdpi="90"
       inkscape:export-ydpi="90">
      <g
         id="g3503"
         transform="matrix(1.1739295,0,0,1.1739295,-332.1757,108.79512)"
         inkscape:export-filename="C:\Users\Frederik Simon\Documents\Studium\Game Development 101\DraCo\Assets\Sprites\Player\player_walk.png"
         inkscape:export-xdpi="90"
         inkscape:export-ydpi="90">
        <path
           transform="matrix(0.54563198,0,0,0.5692269,81.462058,151.35792)"
           d="m 287.89348,259.89752 a 97.479721,93.43911 0 0 1 -97.47972,93.43911 97.479721,93.43911 0 0 1 -97.479724,-93.43911 97.479721,93.43911 0 0 1 97.479724,-93.43911 97.479721,93.43911 0 0 1 97.47972,93.43911 z"
           sodipodi:ry="93.43911"
           sodipodi:rx="97.479721"
           sodipodi:cy="259.89752"
           sodipodi:cx="190.41376"
           id="path3505"
           style="fill:none;stroke:#000000;stroke-width:4.77190161;stroke-miterlimit:4;stroke-dasharray:none"
           sodipodi:type="arc" />
        <path
           sodipodi:type="arc"
           style="fill:#000000;fill-opacity:1;fill-rule:nonzero;stroke:none"
           id="path3507"
           sodipodi:cx="190.41376"
           sodipodi:cy="259.89752"
           sodipodi:rx="97.479721"
           sodipodi:ry="93.43911"
           d="m 287.89348,259.89752 a 97.479721,93.43911 0 0 1 -97.47972,93.43911 97.479721,93.43911 0 0 1 -97.479724,-93.43911 97.479721,93.43911 0 0 1 97.479724,-93.43911 97.479721,93.43911 0 0 1 97.47972,93.43911 z"
           transform="matrix(0.06060104,0,0,0.06322162,152.86468,264.5999)" />
        <path
           transform="matrix(0.0868186,0,0,0.13055555,149.96202,244.69374)"
           d="m 287.89348,259.89752 a 97.479721,93.43911 0 0 1 -97.47972,93.43911 97.479721,93.43911 0 0 1 -97.479724,-93.43911 97.479721,93.43911 0 0 1 97.479724,-93.43911 97.479721,93.43911 0 0 1 97.47972,93.43911 z"
           sodipodi:ry="93.43911"
           sodipodi:rx="97.479721"
           sodipodi:cy="259.89752"
           sodipodi:cx="190.41376"
           id="path3509"
           style="fill:none;stroke:#000000;stroke-width:8.26810646;stroke-miterlimit:4;stroke-dasharray:none"
           sodipodi:type="arc" />
        <path
           inkscape:connector-curvature="0"
           id="path3511"
           d="m 139.72724,323.85465 c 0,0 12.15726,6.83846 26.59402,0.75983 14.43675,-6.07864 12.15727,-8.35812 12.15727,-8.35812"
           style="fill:none;stroke:#000000;stroke-width:2.65940261;stroke-linecap:butt;stroke-linejoin:miter;stroke-miterlimit:4;stroke-opacity:1;stroke-dasharray:none" />
      </g>
      <path
         style="fill:#000000;fill-opacity:1;fill-rule:nonzero;stroke:#999999;stroke-width:1.19047308"
         d="m -90.497198,534.10186 c 0,5.81137 -7.583897,10.5224 -16.939122,10.5224 -9.35521,0 -16.93912,-4.71103 -16.93912,-10.5224 0,-5.81135 8.30088,-3.15283 17.55884,-5.11086 8.528922,-1.80385 16.319402,-0.70049 16.319402,5.11086 z"
         id="path3513"
         inkscape:connector-curvature="0"
         sodipodi:nodetypes="sssss"
         inkscape:export-filename="C:\Users\Frederik Simon\Documents\Studium\Game Development 101\DraCo\Assets\Sprites\Player\player_walk.png"
         inkscape:export-xdpi="90"
         inkscape:export-ydpi="90" />
      <path
         sodipodi:nodetypes="sssss"
         inkscape:connector-curvature="0"
         id="path3515"
         d="m -102.91754,533.50058 c 0,5.81136 -7.5839,10.5224 -16.93913,10.5224 -9.35521,0 -16.93912,-4.71104 -16.93912,-10.5224 0,-5.81136 8.30089,-3.15284 17.55885,-5.11087 8.52892,-1.80384 16.3194,-0.70049 16.3194,5.11087 z"
         style="fill:#000000;fill-opacity:1;fill-rule:nonzero;stroke:#999999;stroke-width:1.19047308"
         inkscape:export-filename="C:\Users\Frederik Simon\Documents\Studium\Game Development 101\DraCo\Assets\Sprites\Player\player_walk.png"
         inkscape:export-xdpi="90"
         inkscape:export-ydpi="90" />
      <path
         sodipodi:type="arc"
         style="fill:#000000;fill-opacity:1;fill-rule:nonzero;stroke:none"
         id="path3517"
         sodipodi:cx="190.41376"
         sodipodi:cy="259.89752"
         sodipodi:rx="97.479721"
         sodipodi:ry="93.43911"
         d="m 287.89348,259.89752 a 97.479721,93.43911 0 1 1 -194.959444,0 97.479721,93.43911 0 1 1 194.959444,0 z"
         transform="matrix(0.07114135,0,0,0.07421772,-152.72334,419.41676)"
         inkscape:export-filename="C:\Users\Frederik Simon\Documents\Studium\Game Development 101\DraCo\Assets\Sprites\Player\player_walk.png"
         inkscape:export-xdpi="90"
         inkscape:export-ydpi="90" />
      <path
         transform="matrix(0.10191891,0,0,0.15326302,-156.13086,396.04833)"
         d="m 287.89348,259.89752 a 97.479721,93.43911 0 1 1 -194.959444,0 97.479721,93.43911 0 1 1 194.959444,0 z"
         sodipodi:ry="93.43911"
         sodipodi:rx="97.479721"
         sodipodi:cy="259.89752"
         sodipodi:cx="190.41376"
         id="path3519"
         style="fill:none;stroke:#000000;stroke-width:8.26810646;stroke-miterlimit:4;stroke-dasharray:none"
         sodipodi:type="arc"
         inkscape:export-filename="C:\Users\Frederik Simon\Documents\Studium\Game Development 101\DraCo\Assets\Sprites\Player\player_walk.png"
         inkscape:export-xdpi="90"
         inkscape:export-ydpi="90" />
      <path
         inkscape:connector-curvature="0"
         id="path3521"
         d="m -168.14577,488.97766 c 0,0 14.27176,8.02787 31.2195,0.89198 16.94773,-7.13589 14.27179,-9.81184 14.27179,-9.81184"
         style="fill:none;stroke:#000000;stroke-width:3.1219511;stroke-linecap:butt;stroke-linejoin:miter;stroke-miterlimit:4;stroke-opacity:1;stroke-dasharray:none"
         inkscape:export-filename="C:\Users\Frederik Simon\Documents\Studium\Game Development 101\DraCo\Assets\Sprites\Player\player_walk.png"
         inkscape:export-xdpi="90"
         inkscape:export-ydpi="90" />
    </g>
    <g
       id="g3725"
       inkscape:export-filename="C:\Users\Frederik Simon\Documents\Studium\Game Development 101\DraCo\Assets\Sprites\Player\PlayerWalk\player_walk_03.png"
       inkscape:export-xdpi="90"
       inkscape:export-ydpi="90">
      <g
         inkscape:export-ydpi="90"
         inkscape:export-xdpi="90"
         inkscape:export-filename="C:\Users\Frederik Simon\Documents\Studium\Game Development 101\DraCo\Assets\Sprites\Player\player_walk.png"
         transform="matrix(1.1739295,0,0,1.1739295,-192.1757,108.79512)"
         id="g3533">
        <path
           sodipodi:type="arc"
           style="fill:none;stroke:#000000;stroke-width:4.77190161;stroke-miterlimit:4;stroke-dasharray:none"
           id="path3535"
           sodipodi:cx="190.41376"
           sodipodi:cy="259.89752"
           sodipodi:rx="97.479721"
           sodipodi:ry="93.43911"
           d="m 287.89348,259.89752 a 97.479721,93.43911 0 0 1 -97.47972,93.43911 97.479721,93.43911 0 0 1 -97.479724,-93.43911 97.479721,93.43911 0 0 1 97.479724,-93.43911 97.479721,93.43911 0 0 1 97.47972,93.43911 z"
           transform="matrix(0.54563198,0,0,0.5692269,81.462058,151.35792)" />
        <path
           transform="matrix(0.06060104,0,0,0.06322162,152.86468,264.5999)"
           d="m 287.89348,259.89752 a 97.479721,93.43911 0 0 1 -97.47972,93.43911 97.479721,93.43911 0 0 1 -97.479724,-93.43911 97.479721,93.43911 0 0 1 97.479724,-93.43911 97.479721,93.43911 0 0 1 97.47972,93.43911 z"
           sodipodi:ry="93.43911"
           sodipodi:rx="97.479721"
           sodipodi:cy="259.89752"
           sodipodi:cx="190.41376"
           id="path3537"
           style="fill:#000000;fill-opacity:1;fill-rule:nonzero;stroke:none"
           sodipodi:type="arc" />
        <path
           sodipodi:type="arc"
           style="fill:none;stroke:#000000;stroke-width:8.26810646;stroke-miterlimit:4;stroke-dasharray:none"
           id="path3539"
           sodipodi:cx="190.41376"
           sodipodi:cy="259.89752"
           sodipodi:rx="97.479721"
           sodipodi:ry="93.43911"
           d="m 287.89348,259.89752 a 97.479721,93.43911 0 0 1 -97.47972,93.43911 97.479721,93.43911 0 0 1 -97.479724,-93.43911 97.479721,93.43911 0 0 1 97.479724,-93.43911 97.479721,93.43911 0 0 1 97.47972,93.43911 z"
           transform="matrix(0.0868186,0,0,0.13055555,149.96202,244.69374)" />
        <path
           style="fill:none;stroke:#000000;stroke-width:2.65940261;stroke-linecap:butt;stroke-linejoin:miter;stroke-miterlimit:4;stroke-opacity:1;stroke-dasharray:none"
           d="m 139.72724,323.85465 c 0,0 12.15726,6.83846 26.59402,0.75983 14.43675,-6.07864 12.15727,-8.35812 12.15727,-8.35812"
           id="path3541"
           inkscape:connector-curvature="0" />
      </g>
      <path
         inkscape:export-ydpi="90"
         inkscape:export-xdpi="90"
         inkscape:export-filename="C:\Users\Frederik Simon\Documents\Studium\Game Development 101\DraCo\Assets\Sprites\Player\player_walk.png"
         sodipodi:nodetypes="sssss"
         inkscape:connector-curvature="0"
         id="path3543"
         d="m 39.502802,534.10186 c 0,5.81137 -7.583897,10.5224 -16.939122,10.5224 -9.35521,0 -16.93912,-4.71103 -16.93912,-10.5224 0,-5.81135 8.30088,-3.15283 17.55884,-5.11086 8.528922,-1.80385 16.319402,-0.70049 16.319402,5.11086 z"
         style="fill:#000000;fill-opacity:1;fill-rule:nonzero;stroke:#999999;stroke-width:1.19047308" />
      <path
         inkscape:export-ydpi="90"
         inkscape:export-xdpi="90"
         inkscape:export-filename="C:\Users\Frederik Simon\Documents\Studium\Game Development 101\DraCo\Assets\Sprites\Player\player_walk.png"
         style="fill:#000000;fill-opacity:1;fill-rule:nonzero;stroke:#999999;stroke-width:1.19047308"
         d="m 47.08246,533.50058 c 0,5.81136 -7.5839,10.5224 -16.93913,10.5224 -9.35521,0 -16.93912,-4.71104 -16.93912,-10.5224 0,-5.81136 8.30089,-3.15284 17.55885,-5.11087 8.52892,-1.80384 16.3194,-0.70049 16.3194,5.11087 z"
         id="path3545"
         inkscape:connector-curvature="0"
         sodipodi:nodetypes="sssss" />
      <path
         inkscape:export-ydpi="90"
         inkscape:export-xdpi="90"
         inkscape:export-filename="C:\Users\Frederik Simon\Documents\Studium\Game Development 101\DraCo\Assets\Sprites\Player\player_walk.png"
         transform="matrix(0.07114135,0,0,0.07421772,-12.72334,419.41676)"
         d="m 287.89348,259.89752 a 97.479721,93.43911 0 1 1 -194.959444,0 97.479721,93.43911 0 1 1 194.959444,0 z"
         sodipodi:ry="93.43911"
         sodipodi:rx="97.479721"
         sodipodi:cy="259.89752"
         sodipodi:cx="190.41376"
         id="path3547"
         style="fill:#000000;fill-opacity:1;fill-rule:nonzero;stroke:none"
         sodipodi:type="arc" />
      <path
         inkscape:export-ydpi="90"
         inkscape:export-xdpi="90"
         inkscape:export-filename="C:\Users\Frederik Simon\Documents\Studium\Game Development 101\DraCo\Assets\Sprites\Player\player_walk.png"
         sodipodi:type="arc"
         style="fill:none;stroke:#000000;stroke-width:8.26810646;stroke-miterlimit:4;stroke-dasharray:none"
         id="path3549"
         sodipodi:cx="190.41376"
         sodipodi:cy="259.89752"
         sodipodi:rx="97.479721"
         sodipodi:ry="93.43911"
         d="m 287.89348,259.89752 a 97.479721,93.43911 0 1 1 -194.959444,0 97.479721,93.43911 0 1 1 194.959444,0 z"
         transform="matrix(0.10191891,0,0,0.15326302,-16.13086,396.04833)" />
      <path
         inkscape:export-ydpi="90"
         inkscape:export-xdpi="90"
         inkscape:export-filename="C:\Users\Frederik Simon\Documents\Studium\Game Development 101\DraCo\Assets\Sprites\Player\player_walk.png"
         style="fill:none;stroke:#000000;stroke-width:3.1219511;stroke-linecap:butt;stroke-linejoin:miter;stroke-miterlimit:4;stroke-opacity:1;stroke-dasharray:none"
         d="m -28.14577,488.97766 c 0,0 14.27176,8.02787 31.2195,0.89198 16.94773,-7.13589 14.27179,-9.81184 14.27179,-9.81184"
         id="path3551"
         inkscape:connector-curvature="0" />
    </g>
    <g
       id="g3737"
       inkscape:export-filename="C:\Users\Frederik Simon\Documents\Studium\Game Development 101\DraCo\Assets\Sprites\Player\PlayerWalk\player_walk_04.png"
       inkscape:export-xdpi="90"
       inkscape:export-ydpi="90">
      <g
         id="g3553"
         transform="matrix(1.1739295,0,0,1.1739295,-32.1757,108.79512)"
         inkscape:export-filename="C:\Users\Frederik Simon\Documents\Studium\Game Development 101\DraCo\Assets\Sprites\Player\player_walk.png"
         inkscape:export-xdpi="90"
         inkscape:export-ydpi="90">
        <path
           transform="matrix(0.54563198,0,0,0.5692269,81.462058,151.35792)"
           d="m 287.89348,259.89752 a 97.479721,93.43911 0 0 1 -97.47972,93.43911 97.479721,93.43911 0 0 1 -97.479724,-93.43911 97.479721,93.43911 0 0 1 97.479724,-93.43911 97.479721,93.43911 0 0 1 97.47972,93.43911 z"
           sodipodi:ry="93.43911"
           sodipodi:rx="97.479721"
           sodipodi:cy="259.89752"
           sodipodi:cx="190.41376"
           id="path3555"
           style="fill:none;stroke:#000000;stroke-width:4.77190161;stroke-miterlimit:4;stroke-dasharray:none"
           sodipodi:type="arc" />
        <path
           sodipodi:type="arc"
           style="fill:#000000;fill-opacity:1;fill-rule:nonzero;stroke:none"
           id="path3557"
           sodipodi:cx="190.41376"
           sodipodi:cy="259.89752"
           sodipodi:rx="97.479721"
           sodipodi:ry="93.43911"
           d="m 287.89348,259.89752 a 97.479721,93.43911 0 0 1 -97.47972,93.43911 97.479721,93.43911 0 0 1 -97.479724,-93.43911 97.479721,93.43911 0 0 1 97.479724,-93.43911 97.479721,93.43911 0 0 1 97.47972,93.43911 z"
           transform="matrix(0.06060104,0,0,0.06322162,152.86468,264.5999)" />
        <path
           transform="matrix(0.0868186,0,0,0.13055555,149.96202,244.69374)"
           d="m 287.89348,259.89752 a 97.479721,93.43911 0 0 1 -97.47972,93.43911 97.479721,93.43911 0 0 1 -97.479724,-93.43911 97.479721,93.43911 0 0 1 97.479724,-93.43911 97.479721,93.43911 0 0 1 97.47972,93.43911 z"
           sodipodi:ry="93.43911"
           sodipodi:rx="97.479721"
           sodipodi:cy="259.89752"
           sodipodi:cx="190.41376"
           id="path3559"
           style="fill:none;stroke:#000000;stroke-width:8.26810646;stroke-miterlimit:4;stroke-dasharray:none"
           sodipodi:type="arc" />
        <path
           inkscape:connector-curvature="0"
           id="path3561"
           d="m 139.72724,323.85465 c 0,0 12.15726,6.83846 26.59402,0.75983 14.43675,-6.07864 12.15727,-8.35812 12.15727,-8.35812"
           style="fill:none;stroke:#000000;stroke-width:2.65940261;stroke-linecap:butt;stroke-linejoin:miter;stroke-miterlimit:4;stroke-opacity:1;stroke-dasharray:none" />
      </g>
      <path
         style="fill:#000000;fill-opacity:1;fill-rule:nonzero;stroke:#999999;stroke-width:1.19047308"
         d="m 189.5028,534.10186 c 0,5.81137 -7.5839,10.5224 -16.93912,10.5224 -9.35521,0 -16.93912,-4.71103 -16.93912,-10.5224 0,-5.81135 8.30088,-3.15283 17.55884,-5.11086 8.52892,-1.80385 16.3194,-0.70049 16.3194,5.11086 z"
         id="path3563"
         inkscape:connector-curvature="0"
         sodipodi:nodetypes="sssss"
         inkscape:export-filename="C:\Users\Frederik Simon\Documents\Studium\Game Development 101\DraCo\Assets\Sprites\Player\player_walk.png"
         inkscape:export-xdpi="90"
         inkscape:export-ydpi="90" />
      <path
         sodipodi:nodetypes="sssss"
         inkscape:connector-curvature="0"
         id="path3565"
         d="m 217.08246,533.50058 c 0,5.81136 -7.5839,10.5224 -16.93913,10.5224 -9.35521,0 -16.93912,-4.71104 -16.93912,-10.5224 0,-5.81136 8.30089,-3.15284 17.55885,-5.11087 8.52892,-1.80384 16.3194,-0.70049 16.3194,5.11087 z"
         style="fill:#000000;fill-opacity:1;fill-rule:nonzero;stroke:#999999;stroke-width:1.19047308"
         inkscape:export-filename="C:\Users\Frederik Simon\Documents\Studium\Game Development 101\DraCo\Assets\Sprites\Player\player_walk.png"
         inkscape:export-xdpi="90"
         inkscape:export-ydpi="90" />
      <path
         sodipodi:type="arc"
         style="fill:#000000;fill-opacity:1;fill-rule:nonzero;stroke:none"
         id="path3567"
         sodipodi:cx="190.41376"
         sodipodi:cy="259.89752"
         sodipodi:rx="97.479721"
         sodipodi:ry="93.43911"
         d="m 287.89348,259.89752 a 97.479721,93.43911 0 1 1 -194.959444,0 97.479721,93.43911 0 1 1 194.959444,0 z"
         transform="matrix(0.07114135,0,0,0.07421772,147.27666,419.41676)"
         inkscape:export-filename="C:\Users\Frederik Simon\Documents\Studium\Game Development 101\DraCo\Assets\Sprites\Player\player_walk.png"
         inkscape:export-xdpi="90"
         inkscape:export-ydpi="90" />
      <path
         transform="matrix(0.10191891,0,0,0.15326302,143.86914,396.04833)"
         d="m 287.89348,259.89752 a 97.479721,93.43911 0 1 1 -194.959444,0 97.479721,93.43911 0 1 1 194.959444,0 z"
         sodipodi:ry="93.43911"
         sodipodi:rx="97.479721"
         sodipodi:cy="259.89752"
         sodipodi:cx="190.41376"
         id="path3569"
         style="fill:none;stroke:#000000;stroke-width:8.26810646;stroke-miterlimit:4;stroke-dasharray:none"
         sodipodi:type="arc"
         inkscape:export-filename="C:\Users\Frederik Simon\Documents\Studium\Game Development 101\DraCo\Assets\Sprites\Player\player_walk.png"
         inkscape:export-xdpi="90"
         inkscape:export-ydpi="90" />
      <path
         inkscape:connector-curvature="0"
         id="path3571"
         d="m 131.85423,488.97766 c 0,0 14.27176,8.02787 31.2195,0.89198 16.94773,-7.13589 14.27179,-9.81184 14.27179,-9.81184"
         style="fill:none;stroke:#000000;stroke-width:3.1219511;stroke-linecap:butt;stroke-linejoin:miter;stroke-miterlimit:4;stroke-opacity:1;stroke-dasharray:none"
         inkscape:export-filename="C:\Users\Frederik Simon\Documents\Studium\Game Development 101\DraCo\Assets\Sprites\Player\player_walk.png"
         inkscape:export-xdpi="90"
         inkscape:export-ydpi="90" />
    </g>
    <g
       id="g3749"
       inkscape:export-filename="C:\Users\Frederik Simon\Documents\Studium\Game Development 101\DraCo\Assets\Sprites\Player\PlayerWalk\player_walk_05.png"
       inkscape:export-xdpi="90"
       inkscape:export-ydpi="90">
      <g
         inkscape:export-ydpi="90"
         inkscape:export-xdpi="90"
         inkscape:export-filename="C:\Users\Frederik Simon\Documents\Studium\Game Development 101\DraCo\Assets\Sprites\Player\player_walk.png"
         transform="matrix(1.1739295,0,0,1.1739295,127.8243,108.79512)"
         id="g3573">
        <path
           sodipodi:type="arc"
           style="fill:none;stroke:#000000;stroke-width:4.77190161;stroke-miterlimit:4;stroke-dasharray:none"
           id="path3575"
           sodipodi:cx="190.41376"
           sodipodi:cy="259.89752"
           sodipodi:rx="97.479721"
           sodipodi:ry="93.43911"
           d="m 287.89348,259.89752 a 97.479721,93.43911 0 0 1 -97.47972,93.43911 97.479721,93.43911 0 0 1 -97.479724,-93.43911 97.479721,93.43911 0 0 1 97.479724,-93.43911 97.479721,93.43911 0 0 1 97.47972,93.43911 z"
           transform="matrix(0.54563198,0,0,0.5692269,81.462058,151.35792)" />
        <path
           transform="matrix(0.06060104,0,0,0.06322162,152.86468,264.5999)"
           d="m 287.89348,259.89752 a 97.479721,93.43911 0 0 1 -97.47972,93.43911 97.479721,93.43911 0 0 1 -97.479724,-93.43911 97.479721,93.43911 0 0 1 97.479724,-93.43911 97.479721,93.43911 0 0 1 97.47972,93.43911 z"
           sodipodi:ry="93.43911"
           sodipodi:rx="97.479721"
           sodipodi:cy="259.89752"
           sodipodi:cx="190.41376"
           id="path3577"
           style="fill:#000000;fill-opacity:1;fill-rule:nonzero;stroke:none"
           sodipodi:type="arc" />
        <path
           sodipodi:type="arc"
           style="fill:none;stroke:#000000;stroke-width:8.26810646;stroke-miterlimit:4;stroke-dasharray:none"
           id="path3579"
           sodipodi:cx="190.41376"
           sodipodi:cy="259.89752"
           sodipodi:rx="97.479721"
           sodipodi:ry="93.43911"
           d="m 287.89348,259.89752 a 97.479721,93.43911 0 0 1 -97.47972,93.43911 97.479721,93.43911 0 0 1 -97.479724,-93.43911 97.479721,93.43911 0 0 1 97.479724,-93.43911 97.479721,93.43911 0 0 1 97.47972,93.43911 z"
           transform="matrix(0.0868186,0,0,0.13055555,149.96202,244.69374)" />
        <path
           style="fill:none;stroke:#000000;stroke-width:2.65940261;stroke-linecap:butt;stroke-linejoin:miter;stroke-miterlimit:4;stroke-opacity:1;stroke-dasharray:none"
           d="m 139.72724,323.85465 c 0,0 12.15726,6.83846 26.59402,0.75983 14.43675,-6.07864 12.15727,-8.35812 12.15727,-8.35812"
           id="path3581"
           inkscape:connector-curvature="0" />
      </g>
      <path
         inkscape:export-ydpi="90"
         inkscape:export-xdpi="90"
         inkscape:export-filename="C:\Users\Frederik Simon\Documents\Studium\Game Development 101\DraCo\Assets\Sprites\Player\player_walk.png"
         sodipodi:nodetypes="sssss"
         inkscape:connector-curvature="0"
         id="path3583"
         d="m 339.5028,534.10186 c 0,5.81137 -7.5839,10.5224 -16.93912,10.5224 -9.35521,0 -16.93912,-4.71103 -16.93912,-10.5224 0,-5.81135 8.30088,-3.15283 17.55884,-5.11086 8.52892,-1.80385 16.3194,-0.70049 16.3194,5.11086 z"
         style="fill:#000000;fill-opacity:1;fill-rule:nonzero;stroke:#999999;stroke-width:1.19047308" />
      <path
         inkscape:export-ydpi="90"
         inkscape:export-xdpi="90"
         inkscape:export-filename="C:\Users\Frederik Simon\Documents\Studium\Game Development 101\DraCo\Assets\Sprites\Player\player_walk.png"
         style="fill:#000000;fill-opacity:1;fill-rule:nonzero;stroke:#999999;stroke-width:1.19047308"
         d="m 387.08246,533.50058 c 0,5.81136 -7.5839,10.5224 -16.93913,10.5224 -9.35521,0 -16.93912,-4.71104 -16.93912,-10.5224 0,-5.81136 8.30089,-3.15284 17.55885,-5.11087 8.52892,-1.80384 16.3194,-0.70049 16.3194,5.11087 z"
         id="path3585"
         inkscape:connector-curvature="0"
         sodipodi:nodetypes="sssss" />
      <path
         inkscape:export-ydpi="90"
         inkscape:export-xdpi="90"
         inkscape:export-filename="C:\Users\Frederik Simon\Documents\Studium\Game Development 101\DraCo\Assets\Sprites\Player\player_walk.png"
         transform="matrix(0.07114135,0,0,0.07421772,307.27666,419.41676)"
         d="m 287.89348,259.89752 a 97.479721,93.43911 0 1 1 -194.959444,0 97.479721,93.43911 0 1 1 194.959444,0 z"
         sodipodi:ry="93.43911"
         sodipodi:rx="97.479721"
         sodipodi:cy="259.89752"
         sodipodi:cx="190.41376"
         id="path3587"
         style="fill:#000000;fill-opacity:1;fill-rule:nonzero;stroke:none"
         sodipodi:type="arc" />
      <path
         inkscape:export-ydpi="90"
         inkscape:export-xdpi="90"
         inkscape:export-filename="C:\Users\Frederik Simon\Documents\Studium\Game Development 101\DraCo\Assets\Sprites\Player\player_walk.png"
         sodipodi:type="arc"
         style="fill:none;stroke:#000000;stroke-width:8.26810646;stroke-miterlimit:4;stroke-dasharray:none"
         id="path3589"
         sodipodi:cx="190.41376"
         sodipodi:cy="259.89752"
         sodipodi:rx="97.479721"
         sodipodi:ry="93.43911"
         d="m 287.89348,259.89752 a 97.479721,93.43911 0 1 1 -194.959444,0 97.479721,93.43911 0 1 1 194.959444,0 z"
         transform="matrix(0.10191891,0,0,0.15326302,303.86914,396.04833)" />
      <path
         inkscape:export-ydpi="90"
         inkscape:export-xdpi="90"
         inkscape:export-filename="C:\Users\Frederik Simon\Documents\Studium\Game Development 101\DraCo\Assets\Sprites\Player\player_walk.png"
         style="fill:none;stroke:#000000;stroke-width:3.1219511;stroke-linecap:butt;stroke-linejoin:miter;stroke-miterlimit:4;stroke-opacity:1;stroke-dasharray:none"
         d="m 291.85423,488.97766 c 0,0 14.27176,8.02787 31.2195,0.89198 16.94773,-7.13589 14.27179,-9.81184 14.27179,-9.81184"
         id="path3591"
         inkscape:connector-curvature="0" />
    </g>
    <g
       id="g3761"
       inkscape:export-filename="C:\Users\Frederik Simon\Documents\Studium\Game Development 101\DraCo\Assets\Sprites\Player\PlayerWalk\player_walk_06.png"
       inkscape:export-xdpi="90"
       inkscape:export-ydpi="90">
      <g
         id="g3593"
         transform="matrix(1.1739295,0,0,1.1739295,287.8243,108.79512)"
         inkscape:export-filename="C:\Users\Frederik Simon\Documents\Studium\Game Development 101\DraCo\Assets\Sprites\Player\player_walk.png"
         inkscape:export-xdpi="90"
         inkscape:export-ydpi="90">
        <path
           transform="matrix(0.54563198,0,0,0.5692269,81.462058,151.35792)"
           d="m 287.89348,259.89752 a 97.479721,93.43911 0 0 1 -97.47972,93.43911 97.479721,93.43911 0 0 1 -97.479724,-93.43911 97.479721,93.43911 0 0 1 97.479724,-93.43911 97.479721,93.43911 0 0 1 97.47972,93.43911 z"
           sodipodi:ry="93.43911"
           sodipodi:rx="97.479721"
           sodipodi:cy="259.89752"
           sodipodi:cx="190.41376"
           id="path3595"
           style="fill:none;stroke:#000000;stroke-width:4.77190161;stroke-miterlimit:4;stroke-dasharray:none"
           sodipodi:type="arc" />
        <path
           sodipodi:type="arc"
           style="fill:#000000;fill-opacity:1;fill-rule:nonzero;stroke:none"
           id="path3597"
           sodipodi:cx="190.41376"
           sodipodi:cy="259.89752"
           sodipodi:rx="97.479721"
           sodipodi:ry="93.43911"
           d="m 287.89348,259.89752 a 97.479721,93.43911 0 0 1 -97.47972,93.43911 97.479721,93.43911 0 0 1 -97.479724,-93.43911 97.479721,93.43911 0 0 1 97.479724,-93.43911 97.479721,93.43911 0 0 1 97.47972,93.43911 z"
           transform="matrix(0.06060104,0,0,0.06322162,152.86468,264.5999)" />
        <path
           transform="matrix(0.0868186,0,0,0.13055555,149.96202,244.69374)"
           d="m 287.89348,259.89752 a 97.479721,93.43911 0 0 1 -97.47972,93.43911 97.479721,93.43911 0 0 1 -97.479724,-93.43911 97.479721,93.43911 0 0 1 97.479724,-93.43911 97.479721,93.43911 0 0 1 97.47972,93.43911 z"
           sodipodi:ry="93.43911"
           sodipodi:rx="97.479721"
           sodipodi:cy="259.89752"
           sodipodi:cx="190.41376"
           id="path3599"
           style="fill:none;stroke:#000000;stroke-width:8.26810646;stroke-miterlimit:4;stroke-dasharray:none"
           sodipodi:type="arc" />
        <path
           inkscape:connector-curvature="0"
           id="path3601"
           d="m 139.72724,323.85465 c 0,0 12.15726,6.83846 26.59402,0.75983 14.43675,-6.07864 12.15727,-8.35812 12.15727,-8.35812"
           style="fill:none;stroke:#000000;stroke-width:2.65940261;stroke-linecap:butt;stroke-linejoin:miter;stroke-miterlimit:4;stroke-opacity:1;stroke-dasharray:none" />
      </g>
      <path
         style="fill:#000000;fill-opacity:1;fill-rule:nonzero;stroke:#999999;stroke-width:1.19047308"
         d="m 509.5028,534.10186 c 0,5.81137 -7.5839,10.5224 -16.93912,10.5224 -9.35521,0 -16.93912,-4.71103 -16.93912,-10.5224 0,-5.81135 8.30088,-3.15283 17.55884,-5.11086 8.52892,-1.80385 16.3194,-0.70049 16.3194,5.11086 z"
         id="path3603"
         inkscape:connector-curvature="0"
         sodipodi:nodetypes="sssss"
         inkscape:export-filename="C:\Users\Frederik Simon\Documents\Studium\Game Development 101\DraCo\Assets\Sprites\Player\player_walk.png"
         inkscape:export-xdpi="90"
         inkscape:export-ydpi="90" />
      <path
         sodipodi:nodetypes="sssss"
         inkscape:connector-curvature="0"
         id="path3605"
         d="m 537.08246,533.50058 c 0,5.81136 -7.5839,10.5224 -16.93913,10.5224 -9.35521,0 -16.93912,-4.71104 -16.93912,-10.5224 0,-5.81136 8.30089,-3.15284 17.55885,-5.11087 8.52892,-1.80384 16.3194,-0.70049 16.3194,5.11087 z"
         style="fill:#000000;fill-opacity:1;fill-rule:nonzero;stroke:#999999;stroke-width:1.19047308"
         inkscape:export-filename="C:\Users\Frederik Simon\Documents\Studium\Game Development 101\DraCo\Assets\Sprites\Player\player_walk.png"
         inkscape:export-xdpi="90"
         inkscape:export-ydpi="90" />
      <path
         sodipodi:type="arc"
         style="fill:#000000;fill-opacity:1;fill-rule:nonzero;stroke:none"
         id="path3607"
         sodipodi:cx="190.41376"
         sodipodi:cy="259.89752"
         sodipodi:rx="97.479721"
         sodipodi:ry="93.43911"
         d="m 287.89348,259.89752 a 97.479721,93.43911 0 1 1 -194.959444,0 97.479721,93.43911 0 1 1 194.959444,0 z"
         transform="matrix(0.07114135,0,0,0.07421772,467.27666,419.41676)"
         inkscape:export-filename="C:\Users\Frederik Simon\Documents\Studium\Game Development 101\DraCo\Assets\Sprites\Player\player_walk.png"
         inkscape:export-xdpi="90"
         inkscape:export-ydpi="90" />
      <path
         transform="matrix(0.10191891,0,0,0.15326302,463.86914,396.04833)"
         d="m 287.89348,259.89752 a 97.479721,93.43911 0 1 1 -194.959444,0 97.479721,93.43911 0 1 1 194.959444,0 z"
         sodipodi:ry="93.43911"
         sodipodi:rx="97.479721"
         sodipodi:cy="259.89752"
         sodipodi:cx="190.41376"
         id="path3609"
         style="fill:none;stroke:#000000;stroke-width:8.26810646;stroke-miterlimit:4;stroke-dasharray:none"
         sodipodi:type="arc"
         inkscape:export-filename="C:\Users\Frederik Simon\Documents\Studium\Game Development 101\DraCo\Assets\Sprites\Player\player_walk.png"
         inkscape:export-xdpi="90"
         inkscape:export-ydpi="90" />
      <path
         inkscape:connector-curvature="0"
         id="path3611"
         d="m 451.85423,488.97766 c 0,0 14.27176,8.02787 31.2195,0.89198 16.94773,-7.13589 14.27179,-9.81184 14.27179,-9.81184"
         style="fill:none;stroke:#000000;stroke-width:3.1219511;stroke-linecap:butt;stroke-linejoin:miter;stroke-miterlimit:4;stroke-opacity:1;stroke-dasharray:none"
         inkscape:export-filename="C:\Users\Frederik Simon\Documents\Studium\Game Development 101\DraCo\Assets\Sprites\Player\player_walk.png"
         inkscape:export-xdpi="90"
         inkscape:export-ydpi="90" />
    </g>
    <g
       id="g3773"
       inkscape:export-filename="C:\Users\Frederik Simon\Documents\Studium\Game Development 101\DraCo\Assets\Sprites\Player\PlayerWalk\player_walk_07.png"
       inkscape:export-xdpi="90"
       inkscape:export-ydpi="90">
      <g
         inkscape:export-ydpi="90"
         inkscape:export-xdpi="90"
         inkscape:export-filename="C:\Users\Frederik Simon\Documents\Studium\Game Development 101\DraCo\Assets\Sprites\Player\player_walk.png"
         transform="matrix(1.1739295,0,0,1.1739295,447.8243,108.79512)"
         id="g3613">
        <path
           sodipodi:type="arc"
           style="fill:none;stroke:#000000;stroke-width:4.77190161;stroke-miterlimit:4;stroke-dasharray:none"
           id="path3615"
           sodipodi:cx="190.41376"
           sodipodi:cy="259.89752"
           sodipodi:rx="97.479721"
           sodipodi:ry="93.43911"
           d="m 287.89348,259.89752 a 97.479721,93.43911 0 0 1 -97.47972,93.43911 97.479721,93.43911 0 0 1 -97.479724,-93.43911 97.479721,93.43911 0 0 1 97.479724,-93.43911 97.479721,93.43911 0 0 1 97.47972,93.43911 z"
           transform="matrix(0.54563198,0,0,0.5692269,81.462058,151.35792)" />
        <path
           transform="matrix(0.06060104,0,0,0.06322162,152.86468,264.5999)"
           d="m 287.89348,259.89752 a 97.479721,93.43911 0 0 1 -97.47972,93.43911 97.479721,93.43911 0 0 1 -97.479724,-93.43911 97.479721,93.43911 0 0 1 97.479724,-93.43911 97.479721,93.43911 0 0 1 97.47972,93.43911 z"
           sodipodi:ry="93.43911"
           sodipodi:rx="97.479721"
           sodipodi:cy="259.89752"
           sodipodi:cx="190.41376"
           id="path3617"
           style="fill:#000000;fill-opacity:1;fill-rule:nonzero;stroke:none"
           sodipodi:type="arc" />
        <path
           sodipodi:type="arc"
           style="fill:none;stroke:#000000;stroke-width:8.26810646;stroke-miterlimit:4;stroke-dasharray:none"
           id="path3619"
           sodipodi:cx="190.41376"
           sodipodi:cy="259.89752"
           sodipodi:rx="97.479721"
           sodipodi:ry="93.43911"
           d="m 287.89348,259.89752 a 97.479721,93.43911 0 0 1 -97.47972,93.43911 97.479721,93.43911 0 0 1 -97.479724,-93.43911 97.479721,93.43911 0 0 1 97.479724,-93.43911 97.479721,93.43911 0 0 1 97.47972,93.43911 z"
           transform="matrix(0.0868186,0,0,0.13055555,149.96202,244.69374)" />
        <path
           style="fill:none;stroke:#000000;stroke-width:2.65940261;stroke-linecap:butt;stroke-linejoin:miter;stroke-miterlimit:4;stroke-opacity:1;stroke-dasharray:none"
           d="m 139.72724,323.85465 c 0,0 12.15726,6.83846 26.59402,0.75983 14.43675,-6.07864 12.15727,-8.35812 12.15727,-8.35812"
           id="path3621"
           inkscape:connector-curvature="0" />
      </g>
      <path
         inkscape:export-ydpi="90"
         inkscape:export-xdpi="90"
         inkscape:export-filename="C:\Users\Frederik Simon\Documents\Studium\Game Development 101\DraCo\Assets\Sprites\Player\player_walk.png"
         sodipodi:nodetypes="sssss"
         inkscape:connector-curvature="0"
         id="path3623"
         d="m 679.5028,534.10186 c 0,5.81137 -7.5839,10.5224 -16.93912,10.5224 -9.35521,0 -16.93912,-4.71103 -16.93912,-10.5224 0,-5.81135 8.30088,-3.15283 17.55884,-5.11086 8.52892,-1.80385 16.3194,-0.70049 16.3194,5.11086 z"
         style="fill:#000000;fill-opacity:1;fill-rule:nonzero;stroke:#999999;stroke-width:1.19047308" />
      <path
         inkscape:export-ydpi="90"
         inkscape:export-xdpi="90"
         inkscape:export-filename="C:\Users\Frederik Simon\Documents\Studium\Game Development 101\DraCo\Assets\Sprites\Player\player_walk.png"
         style="fill:#000000;fill-opacity:1;fill-rule:nonzero;stroke:#999999;stroke-width:1.19047308"
         d="m 687.08246,533.50058 c 0,5.81136 -7.5839,10.5224 -16.93913,10.5224 -9.35521,0 -16.93912,-4.71104 -16.93912,-10.5224 0,-5.81136 8.30089,-3.15284 17.55885,-5.11087 8.52892,-1.80384 16.3194,-0.70049 16.3194,5.11087 z"
         id="path3625"
         inkscape:connector-curvature="0"
         sodipodi:nodetypes="sssss" />
      <path
         inkscape:export-ydpi="90"
         inkscape:export-xdpi="90"
         inkscape:export-filename="C:\Users\Frederik Simon\Documents\Studium\Game Development 101\DraCo\Assets\Sprites\Player\player_walk.png"
         transform="matrix(0.07114135,0,0,0.07421772,627.27666,419.41676)"
         d="m 287.89348,259.89752 a 97.479721,93.43911 0 1 1 -194.959444,0 97.479721,93.43911 0 1 1 194.959444,0 z"
         sodipodi:ry="93.43911"
         sodipodi:rx="97.479721"
         sodipodi:cy="259.89752"
         sodipodi:cx="190.41376"
         id="path3627"
         style="fill:#000000;fill-opacity:1;fill-rule:nonzero;stroke:none"
         sodipodi:type="arc" />
      <path
         inkscape:export-ydpi="90"
         inkscape:export-xdpi="90"
         inkscape:export-filename="C:\Users\Frederik Simon\Documents\Studium\Game Development 101\DraCo\Assets\Sprites\Player\player_walk.png"
         sodipodi:type="arc"
         style="fill:none;stroke:#000000;stroke-width:8.26810646;stroke-miterlimit:4;stroke-dasharray:none"
         id="path3629"
         sodipodi:cx="190.41376"
         sodipodi:cy="259.89752"
         sodipodi:rx="97.479721"
         sodipodi:ry="93.43911"
         d="m 287.89348,259.89752 a 97.479721,93.43911 0 1 1 -194.959444,0 97.479721,93.43911 0 1 1 194.959444,0 z"
         transform="matrix(0.10191891,0,0,0.15326302,623.86914,396.04833)" />
      <path
         inkscape:export-ydpi="90"
         inkscape:export-xdpi="90"
         inkscape:export-filename="C:\Users\Frederik Simon\Documents\Studium\Game Development 101\DraCo\Assets\Sprites\Player\player_walk.png"
         style="fill:none;stroke:#000000;stroke-width:3.1219511;stroke-linecap:butt;stroke-linejoin:miter;stroke-miterlimit:4;stroke-opacity:1;stroke-dasharray:none"
         d="m 611.85423,488.97766 c 0,0 14.27176,8.02787 31.2195,0.89198 16.94773,-7.13589 14.27179,-9.81184 14.27179,-9.81184"
         id="path3631"
         inkscape:connector-curvature="0" />
    </g>
    <g
       id="g3785"
       inkscape:export-filename="C:\Users\Frederik Simon\Documents\Studium\Game Development 101\DraCo\Assets\Sprites\Player\PlayerWalk\player_walk_08.png"
       inkscape:export-xdpi="90"
       inkscape:export-ydpi="90">
      <g
         id="g3633"
         transform="matrix(1.1739295,0,0,1.1739295,607.8243,108.79512)"
         inkscape:export-filename="C:\Users\Frederik Simon\Documents\Studium\Game Development 101\DraCo\Assets\Sprites\Player\player_walk.png"
         inkscape:export-xdpi="90"
         inkscape:export-ydpi="90">
        <path
           transform="matrix(0.54563198,0,0,0.5692269,81.462058,151.35792)"
           d="m 287.89348,259.89752 a 97.479721,93.43911 0 0 1 -97.47972,93.43911 97.479721,93.43911 0 0 1 -97.479724,-93.43911 97.479721,93.43911 0 0 1 97.479724,-93.43911 97.479721,93.43911 0 0 1 97.47972,93.43911 z"
           sodipodi:ry="93.43911"
           sodipodi:rx="97.479721"
           sodipodi:cy="259.89752"
           sodipodi:cx="190.41376"
           id="path3635"
           style="fill:none;stroke:#000000;stroke-width:4.77190161;stroke-miterlimit:4;stroke-dasharray:none"
           sodipodi:type="arc" />
        <path
           sodipodi:type="arc"
           style="fill:#000000;fill-opacity:1;fill-rule:nonzero;stroke:none"
           id="path3637"
           sodipodi:cx="190.41376"
           sodipodi:cy="259.89752"
           sodipodi:rx="97.479721"
           sodipodi:ry="93.43911"
           d="m 287.89348,259.89752 a 97.479721,93.43911 0 0 1 -97.47972,93.43911 97.479721,93.43911 0 0 1 -97.479724,-93.43911 97.479721,93.43911 0 0 1 97.479724,-93.43911 97.479721,93.43911 0 0 1 97.47972,93.43911 z"
           transform="matrix(0.06060104,0,0,0.06322162,152.86468,264.5999)" />
        <path
           transform="matrix(0.0868186,0,0,0.13055555,149.96202,244.69374)"
           d="m 287.89348,259.89752 a 97.479721,93.43911 0 0 1 -97.47972,93.43911 97.479721,93.43911 0 0 1 -97.479724,-93.43911 97.479721,93.43911 0 0 1 97.479724,-93.43911 97.479721,93.43911 0 0 1 97.47972,93.43911 z"
           sodipodi:ry="93.43911"
           sodipodi:rx="97.479721"
           sodipodi:cy="259.89752"
           sodipodi:cx="190.41376"
           id="path3639"
           style="fill:none;stroke:#000000;stroke-width:8.26810646;stroke-miterlimit:4;stroke-dasharray:none"
           sodipodi:type="arc" />
        <path
           inkscape:connector-curvature="0"
           id="path3641"
           d="m 139.72724,323.85465 c 0,0 12.15726,6.83846 26.59402,0.75983 14.43675,-6.07864 12.15727,-8.35812 12.15727,-8.35812"
           style="fill:none;stroke:#000000;stroke-width:2.65940261;stroke-linecap:butt;stroke-linejoin:miter;stroke-miterlimit:4;stroke-opacity:1;stroke-dasharray:none" />
      </g>
      <path
         style="fill:#000000;fill-opacity:1;fill-rule:nonzero;stroke:#999999;stroke-width:1.19047308"
         d="m 849.5028,534.10186 c 0,5.81137 -7.5839,10.5224 -16.93912,10.5224 -9.35521,0 -16.93912,-4.71103 -16.93912,-10.5224 0,-5.81135 8.30088,-3.15283 17.55884,-5.11086 8.52892,-1.80385 16.3194,-0.70049 16.3194,5.11086 z"
         id="path3643"
         inkscape:connector-curvature="0"
         sodipodi:nodetypes="sssss"
         inkscape:export-filename="C:\Users\Frederik Simon\Documents\Studium\Game Development 101\DraCo\Assets\Sprites\Player\player_walk.png"
         inkscape:export-xdpi="90"
         inkscape:export-ydpi="90" />
      <path
         sodipodi:nodetypes="sssss"
         inkscape:connector-curvature="0"
         id="path3645"
         d="m 837.08246,533.50058 c 0,5.81136 -7.5839,10.5224 -16.93913,10.5224 -9.35521,0 -16.93912,-4.71104 -16.93912,-10.5224 0,-5.81136 8.30089,-3.15284 17.55885,-5.11087 8.52892,-1.80384 16.3194,-0.70049 16.3194,5.11087 z"
         style="fill:#000000;fill-opacity:1;fill-rule:nonzero;stroke:#999999;stroke-width:1.19047308"
         inkscape:export-filename="C:\Users\Frederik Simon\Documents\Studium\Game Development 101\DraCo\Assets\Sprites\Player\player_walk.png"
         inkscape:export-xdpi="90"
         inkscape:export-ydpi="90" />
      <path
         sodipodi:type="arc"
         style="fill:#000000;fill-opacity:1;fill-rule:nonzero;stroke:none"
         id="path3647"
         sodipodi:cx="190.41376"
         sodipodi:cy="259.89752"
         sodipodi:rx="97.479721"
         sodipodi:ry="93.43911"
         d="m 287.89348,259.89752 a 97.479721,93.43911 0 1 1 -194.959444,0 97.479721,93.43911 0 1 1 194.959444,0 z"
         transform="matrix(0.07114135,0,0,0.07421772,787.27666,419.41676)"
         inkscape:export-filename="C:\Users\Frederik Simon\Documents\Studium\Game Development 101\DraCo\Assets\Sprites\Player\player_walk.png"
         inkscape:export-xdpi="90"
         inkscape:export-ydpi="90" />
      <path
         transform="matrix(0.10191891,0,0,0.15326302,783.86914,396.04833)"
         d="m 287.89348,259.89752 a 97.479721,93.43911 0 1 1 -194.959444,0 97.479721,93.43911 0 1 1 194.959444,0 z"
         sodipodi:ry="93.43911"
         sodipodi:rx="97.479721"
         sodipodi:cy="259.89752"
         sodipodi:cx="190.41376"
         id="path3649"
         style="fill:none;stroke:#000000;stroke-width:8.26810646;stroke-miterlimit:4;stroke-dasharray:none"
         sodipodi:type="arc"
         inkscape:export-filename="C:\Users\Frederik Simon\Documents\Studium\Game Development 101\DraCo\Assets\Sprites\Player\player_walk.png"
         inkscape:export-xdpi="90"
         inkscape:export-ydpi="90" />
      <path
         inkscape:connector-curvature="0"
         id="path3651"
         d="m 771.85423,488.97766 c 0,0 14.27176,8.02787 31.2195,0.89198 16.94773,-7.13589 14.27179,-9.81184 14.27179,-9.81184"
         style="fill:none;stroke:#000000;stroke-width:3.1219511;stroke-linecap:butt;stroke-linejoin:miter;stroke-miterlimit:4;stroke-opacity:1;stroke-dasharray:none"
         inkscape:export-filename="C:\Users\Frederik Simon\Documents\Studium\Game Development 101\DraCo\Assets\Sprites\Player\player_walk.png"
         inkscape:export-xdpi="90"
         inkscape:export-ydpi="90" />
    </g>
    <g
       id="g3797"
       inkscape:export-filename="C:\Users\Frederik Simon\Documents\Studium\Game Development 101\DraCo\Assets\Sprites\Player\PlayerWalk\player_walk_09.png"
       inkscape:export-xdpi="90"
       inkscape:export-ydpi="90">
      <g
         inkscape:export-ydpi="90"
         inkscape:export-xdpi="90"
         inkscape:export-filename="C:\Users\Frederik Simon\Documents\Studium\Game Development 101\DraCo\Assets\Sprites\Player\player_walk.png"
         transform="matrix(1.1739295,0,0,1.1739295,767.8243,108.79512)"
         id="g3653">
        <path
           sodipodi:type="arc"
           style="fill:none;stroke:#000000;stroke-width:4.77190161;stroke-miterlimit:4;stroke-dasharray:none"
           id="path3655"
           sodipodi:cx="190.41376"
           sodipodi:cy="259.89752"
           sodipodi:rx="97.479721"
           sodipodi:ry="93.43911"
           d="m 287.89348,259.89752 a 97.479721,93.43911 0 0 1 -97.47972,93.43911 97.479721,93.43911 0 0 1 -97.479724,-93.43911 97.479721,93.43911 0 0 1 97.479724,-93.43911 97.479721,93.43911 0 0 1 97.47972,93.43911 z"
           transform="matrix(0.54563198,0,0,0.5692269,81.462058,151.35792)" />
        <path
           transform="matrix(0.06060104,0,0,0.06322162,152.86468,264.5999)"
           d="m 287.89348,259.89752 a 97.479721,93.43911 0 0 1 -97.47972,93.43911 97.479721,93.43911 0 0 1 -97.479724,-93.43911 97.479721,93.43911 0 0 1 97.479724,-93.43911 97.479721,93.43911 0 0 1 97.47972,93.43911 z"
           sodipodi:ry="93.43911"
           sodipodi:rx="97.479721"
           sodipodi:cy="259.89752"
           sodipodi:cx="190.41376"
           id="path3657"
           style="fill:#000000;fill-opacity:1;fill-rule:nonzero;stroke:none"
           sodipodi:type="arc" />
        <path
           sodipodi:type="arc"
           style="fill:none;stroke:#000000;stroke-width:8.26810646;stroke-miterlimit:4;stroke-dasharray:none"
           id="path3659"
           sodipodi:cx="190.41376"
           sodipodi:cy="259.89752"
           sodipodi:rx="97.479721"
           sodipodi:ry="93.43911"
           d="m 287.89348,259.89752 a 97.479721,93.43911 0 0 1 -97.47972,93.43911 97.479721,93.43911 0 0 1 -97.479724,-93.43911 97.479721,93.43911 0 0 1 97.479724,-93.43911 97.479721,93.43911 0 0 1 97.47972,93.43911 z"
           transform="matrix(0.0868186,0,0,0.13055555,149.96202,244.69374)" />
        <path
           style="fill:none;stroke:#000000;stroke-width:2.65940261;stroke-linecap:butt;stroke-linejoin:miter;stroke-miterlimit:4;stroke-opacity:1;stroke-dasharray:none"
           d="m 139.72724,323.85465 c 0,0 12.15726,6.83846 26.59402,0.75983 14.43675,-6.07864 12.15727,-8.35812 12.15727,-8.35812"
           id="path3661"
           inkscape:connector-curvature="0" />
      </g>
      <path
         inkscape:export-ydpi="90"
         inkscape:export-xdpi="90"
         inkscape:export-filename="C:\Users\Frederik Simon\Documents\Studium\Game Development 101\DraCo\Assets\Sprites\Player\player_walk.png"
         sodipodi:nodetypes="sssss"
         inkscape:connector-curvature="0"
         id="path3663"
         d="m 1019.5028,534.10186 c 0,5.81137 -7.5839,10.5224 -16.9391,10.5224 -9.35523,0 -16.93914,-4.71103 -16.93914,-10.5224 0,-5.81135 8.30088,-3.15283 17.55884,-5.11086 8.5289,-1.80385 16.3194,-0.70049 16.3194,5.11086 z"
         style="fill:#000000;fill-opacity:1;fill-rule:nonzero;stroke:#999999;stroke-width:1.19047308" />
      <path
         inkscape:export-ydpi="90"
         inkscape:export-xdpi="90"
         inkscape:export-filename="C:\Users\Frederik Simon\Documents\Studium\Game Development 101\DraCo\Assets\Sprites\Player\player_walk.png"
         style="fill:#000000;fill-opacity:1;fill-rule:nonzero;stroke:#999999;stroke-width:1.19047308"
         d="m 987.08246,533.50058 c 0,5.81136 -7.5839,10.5224 -16.93913,10.5224 -9.35521,0 -16.93912,-4.71104 -16.93912,-10.5224 0,-5.81136 8.30089,-3.15284 17.55885,-5.11087 8.52892,-1.80384 16.3194,-0.70049 16.3194,5.11087 z"
         id="path3665"
         inkscape:connector-curvature="0"
         sodipodi:nodetypes="sssss" />
      <path
         inkscape:export-ydpi="90"
         inkscape:export-xdpi="90"
         inkscape:export-filename="C:\Users\Frederik Simon\Documents\Studium\Game Development 101\DraCo\Assets\Sprites\Player\player_walk.png"
         transform="matrix(0.07114135,0,0,0.07421772,947.27666,419.41676)"
         d="m 287.89348,259.89752 a 97.479721,93.43911 0 1 1 -194.959444,0 97.479721,93.43911 0 1 1 194.959444,0 z"
         sodipodi:ry="93.43911"
         sodipodi:rx="97.479721"
         sodipodi:cy="259.89752"
         sodipodi:cx="190.41376"
         id="path3667"
         style="fill:#000000;fill-opacity:1;fill-rule:nonzero;stroke:none"
         sodipodi:type="arc" />
      <path
         inkscape:export-ydpi="90"
         inkscape:export-xdpi="90"
         inkscape:export-filename="C:\Users\Frederik Simon\Documents\Studium\Game Development 101\DraCo\Assets\Sprites\Player\player_walk.png"
         sodipodi:type="arc"
         style="fill:none;stroke:#000000;stroke-width:8.26810646;stroke-miterlimit:4;stroke-dasharray:none"
         id="path3669"
         sodipodi:cx="190.41376"
         sodipodi:cy="259.89752"
         sodipodi:rx="97.479721"
         sodipodi:ry="93.43911"
         d="m 287.89348,259.89752 a 97.479721,93.43911 0 1 1 -194.959444,0 97.479721,93.43911 0 1 1 194.959444,0 z"
         transform="matrix(0.10191891,0,0,0.15326302,943.86914,396.04833)" />
      <path
         inkscape:export-ydpi="90"
         inkscape:export-xdpi="90"
         inkscape:export-filename="C:\Users\Frederik Simon\Documents\Studium\Game Development 101\DraCo\Assets\Sprites\Player\player_walk.png"
         style="fill:none;stroke:#000000;stroke-width:3.1219511;stroke-linecap:butt;stroke-linejoin:miter;stroke-miterlimit:4;stroke-opacity:1;stroke-dasharray:none"
         d="m 931.85423,488.97766 c 0,0 14.27176,8.02787 31.2195,0.89198 16.94773,-7.13589 14.27179,-9.81184 14.27179,-9.81184"
         id="path3671"
         inkscape:connector-curvature="0" />
    </g>
    <g
       id="g3809"
       inkscape:export-filename="C:\Users\Frederik Simon\Documents\Studium\Game Development 101\DraCo\Assets\Sprites\Player\PlayerWalk\player_walk_10.png"
       inkscape:export-xdpi="90"
       inkscape:export-ydpi="90">
      <g
         id="g3673"
         transform="matrix(1.1739295,0,0,1.1739295,907.8243,108.79512)"
         inkscape:export-filename="C:\Users\Frederik Simon\Documents\Studium\Game Development 101\DraCo\Assets\Sprites\Player\player_walk.png"
         inkscape:export-xdpi="90"
         inkscape:export-ydpi="90">
        <path
           transform="matrix(0.54563198,0,0,0.5692269,81.462058,151.35792)"
           d="m 287.89348,259.89752 a 97.479721,93.43911 0 0 1 -97.47972,93.43911 97.479721,93.43911 0 0 1 -97.479724,-93.43911 97.479721,93.43911 0 0 1 97.479724,-93.43911 97.479721,93.43911 0 0 1 97.47972,93.43911 z"
           sodipodi:ry="93.43911"
           sodipodi:rx="97.479721"
           sodipodi:cy="259.89752"
           sodipodi:cx="190.41376"
           id="path3675"
           style="fill:none;stroke:#000000;stroke-width:4.77190161;stroke-miterlimit:4;stroke-dasharray:none"
           sodipodi:type="arc" />
        <path
           sodipodi:type="arc"
           style="fill:#000000;fill-opacity:1;fill-rule:nonzero;stroke:none"
           id="path3677"
           sodipodi:cx="190.41376"
           sodipodi:cy="259.89752"
           sodipodi:rx="97.479721"
           sodipodi:ry="93.43911"
           d="m 287.89348,259.89752 a 97.479721,93.43911 0 0 1 -97.47972,93.43911 97.479721,93.43911 0 0 1 -97.479724,-93.43911 97.479721,93.43911 0 0 1 97.479724,-93.43911 97.479721,93.43911 0 0 1 97.47972,93.43911 z"
           transform="matrix(0.06060104,0,0,0.06322162,152.86468,264.5999)" />
        <path
           transform="matrix(0.0868186,0,0,0.13055555,149.96202,244.69374)"
           d="m 287.89348,259.89752 a 97.479721,93.43911 0 0 1 -97.47972,93.43911 97.479721,93.43911 0 0 1 -97.479724,-93.43911 97.479721,93.43911 0 0 1 97.479724,-93.43911 97.479721,93.43911 0 0 1 97.47972,93.43911 z"
           sodipodi:ry="93.43911"
           sodipodi:rx="97.479721"
           sodipodi:cy="259.89752"
           sodipodi:cx="190.41376"
           id="path3679"
           style="fill:none;stroke:#000000;stroke-width:8.26810646;stroke-miterlimit:4;stroke-dasharray:none"
           sodipodi:type="arc" />
        <path
           inkscape:connector-curvature="0"
           id="path3681"
           d="m 139.72724,323.85465 c 0,0 12.15726,6.83846 26.59402,0.75983 14.43675,-6.07864 12.15727,-8.35812 12.15727,-8.35812"
           style="fill:none;stroke:#000000;stroke-width:2.65940261;stroke-linecap:butt;stroke-linejoin:miter;stroke-miterlimit:4;stroke-opacity:1;stroke-dasharray:none" />
      </g>
      <path
         style="fill:#000000;fill-opacity:1;fill-rule:nonzero;stroke:#999999;stroke-width:1.19047308"
         d="m 1169.5028,534.10186 c 0,5.81137 -7.5839,10.5224 -16.9391,10.5224 -9.3552,0 -16.9391,-4.71103 -16.9391,-10.5224 0,-5.81135 8.3008,-3.15283 17.5588,-5.11086 8.5289,-1.80385 16.3194,-0.70049 16.3194,5.11086 z"
         id="path3683"
         inkscape:connector-curvature="0"
         sodipodi:nodetypes="sssss"
         inkscape:export-filename="C:\Users\Frederik Simon\Documents\Studium\Game Development 101\DraCo\Assets\Sprites\Player\player_walk.png"
         inkscape:export-xdpi="90"
         inkscape:export-ydpi="90" />
      <path
         sodipodi:nodetypes="sssss"
         inkscape:connector-curvature="0"
         id="path3685"
         d="m 1117.0825,533.50058 c 0,5.81136 -7.5839,10.5224 -16.9392,10.5224 -9.3552,0 -16.9391,-4.71104 -16.9391,-10.5224 0,-5.81136 8.3009,-3.15284 17.5589,-5.11087 8.5289,-1.80384 16.3194,-0.70049 16.3194,5.11087 z"
         style="fill:#000000;fill-opacity:1;fill-rule:nonzero;stroke:#999999;stroke-width:1.19047308"
         inkscape:export-filename="C:\Users\Frederik Simon\Documents\Studium\Game Development 101\DraCo\Assets\Sprites\Player\player_walk.png"
         inkscape:export-xdpi="90"
         inkscape:export-ydpi="90" />
      <path
         sodipodi:type="arc"
         style="fill:#000000;fill-opacity:1;fill-rule:nonzero;stroke:none"
         id="path3687"
         sodipodi:cx="190.41376"
         sodipodi:cy="259.89752"
         sodipodi:rx="97.479721"
         sodipodi:ry="93.43911"
         d="m 287.89348,259.89752 a 97.479721,93.43911 0 1 1 -194.959444,0 97.479721,93.43911 0 1 1 194.959444,0 z"
         transform="matrix(0.07114135,0,0,0.07421772,1087.2767,419.41676)"
         inkscape:export-filename="C:\Users\Frederik Simon\Documents\Studium\Game Development 101\DraCo\Assets\Sprites\Player\player_walk.png"
         inkscape:export-xdpi="90"
         inkscape:export-ydpi="90" />
      <path
         transform="matrix(0.10191891,0,0,0.15326302,1083.8691,396.04833)"
         d="m 287.89348,259.89752 a 97.479721,93.43911 0 1 1 -194.959444,0 97.479721,93.43911 0 1 1 194.959444,0 z"
         sodipodi:ry="93.43911"
         sodipodi:rx="97.479721"
         sodipodi:cy="259.89752"
         sodipodi:cx="190.41376"
         id="path3689"
         style="fill:none;stroke:#000000;stroke-width:8.26810646;stroke-miterlimit:4;stroke-dasharray:none"
         sodipodi:type="arc"
         inkscape:export-filename="C:\Users\Frederik Simon\Documents\Studium\Game Development 101\DraCo\Assets\Sprites\Player\player_walk.png"
         inkscape:export-xdpi="90"
         inkscape:export-ydpi="90" />
      <path
         inkscape:connector-curvature="0"
         id="path3691"
         d="m 1071.8542,488.97766 c 0,0 14.2718,8.02787 31.2195,0.89198 16.9478,-7.13589 14.2718,-9.81184 14.2718,-9.81184"
         style="fill:none;stroke:#000000;stroke-width:3.1219511;stroke-linecap:butt;stroke-linejoin:miter;stroke-miterlimit:4;stroke-opacity:1;stroke-dasharray:none"
         inkscape:export-filename="C:\Users\Frederik Simon\Documents\Studium\Game Development 101\DraCo\Assets\Sprites\Player\player_walk.png"
         inkscape:export-xdpi="90"
         inkscape:export-ydpi="90" />
    </g>
    <g
       id="g3821"
       inkscape:export-filename="C:\Users\Frederik Simon\Documents\Studium\Game Development 101\DraCo\Assets\Sprites\Player\PlayerWalk\player_walk_11.png"
       inkscape:export-xdpi="90"
       inkscape:export-ydpi="90">
      <g
         inkscape:export-ydpi="90"
         inkscape:export-xdpi="90"
         inkscape:export-filename="C:\Users\Frederik Simon\Documents\Studium\Game Development 101\DraCo\Assets\Sprites\Player\player_walk.png"
         transform="matrix(1.1739295,0,0,1.1739295,1067.8243,108.79512)"
         id="g3693">
        <path
           sodipodi:type="arc"
           style="fill:none;stroke:#000000;stroke-width:4.77190161;stroke-miterlimit:4;stroke-dasharray:none"
           id="path3695"
           sodipodi:cx="190.41376"
           sodipodi:cy="259.89752"
           sodipodi:rx="97.479721"
           sodipodi:ry="93.43911"
           d="m 287.89348,259.89752 a 97.479721,93.43911 0 0 1 -97.47972,93.43911 97.479721,93.43911 0 0 1 -97.479724,-93.43911 97.479721,93.43911 0 0 1 97.479724,-93.43911 97.479721,93.43911 0 0 1 97.47972,93.43911 z"
           transform="matrix(0.54563198,0,0,0.5692269,81.462058,151.35792)" />
        <path
           transform="matrix(0.06060104,0,0,0.06322162,152.86468,264.5999)"
           d="m 287.89348,259.89752 a 97.479721,93.43911 0 0 1 -97.47972,93.43911 97.479721,93.43911 0 0 1 -97.479724,-93.43911 97.479721,93.43911 0 0 1 97.479724,-93.43911 97.479721,93.43911 0 0 1 97.47972,93.43911 z"
           sodipodi:ry="93.43911"
           sodipodi:rx="97.479721"
           sodipodi:cy="259.89752"
           sodipodi:cx="190.41376"
           id="path3697"
           style="fill:#000000;fill-opacity:1;fill-rule:nonzero;stroke:none"
           sodipodi:type="arc" />
        <path
           sodipodi:type="arc"
           style="fill:none;stroke:#000000;stroke-width:8.26810646;stroke-miterlimit:4;stroke-dasharray:none"
           id="path3699"
           sodipodi:cx="190.41376"
           sodipodi:cy="259.89752"
           sodipodi:rx="97.479721"
           sodipodi:ry="93.43911"
           d="m 287.89348,259.89752 a 97.479721,93.43911 0 0 1 -97.47972,93.43911 97.479721,93.43911 0 0 1 -97.479724,-93.43911 97.479721,93.43911 0 0 1 97.479724,-93.43911 97.479721,93.43911 0 0 1 97.47972,93.43911 z"
           transform="matrix(0.0868186,0,0,0.13055555,149.96202,244.69374)" />
        <path
           style="fill:none;stroke:#000000;stroke-width:2.65940261;stroke-linecap:butt;stroke-linejoin:miter;stroke-miterlimit:4;stroke-opacity:1;stroke-dasharray:none"
           d="m 139.72724,323.85465 c 0,0 12.15726,6.83846 26.59402,0.75983 14.43675,-6.07864 12.15727,-8.35812 12.15727,-8.35812"
           id="path3701"
           inkscape:connector-curvature="0" />
      </g>
      <path
         inkscape:export-ydpi="90"
         inkscape:export-xdpi="90"
         inkscape:export-filename="C:\Users\Frederik Simon\Documents\Studium\Game Development 101\DraCo\Assets\Sprites\Player\player_walk.png"
         sodipodi:nodetypes="sssss"
         inkscape:connector-curvature="0"
         id="path3703"
         d="m 1319.5028,534.10186 c 0,5.81137 -7.5839,10.5224 -16.9391,10.5224 -9.3552,0 -16.9391,-4.71103 -16.9391,-10.5224 0,-5.81135 8.3008,-3.15283 17.5588,-5.11086 8.5289,-1.80385 16.3194,-0.70049 16.3194,5.11086 z"
         style="fill:#000000;fill-opacity:1;fill-rule:nonzero;stroke:#999999;stroke-width:1.19047308" />
      <path
         inkscape:export-ydpi="90"
         inkscape:export-xdpi="90"
         inkscape:export-filename="C:\Users\Frederik Simon\Documents\Studium\Game Development 101\DraCo\Assets\Sprites\Player\player_walk.png"
         style="fill:#000000;fill-opacity:1;fill-rule:nonzero;stroke:#999999;stroke-width:1.19047308"
         d="m 1287.0825,533.50058 c 0,5.81136 -7.5839,10.5224 -16.9392,10.5224 -9.3552,0 -16.9391,-4.71104 -16.9391,-10.5224 0,-5.81136 8.3009,-3.15284 17.5589,-5.11087 8.5289,-1.80384 16.3194,-0.70049 16.3194,5.11087 z"
         id="path3705"
         inkscape:connector-curvature="0"
         sodipodi:nodetypes="sssss" />
      <path
         inkscape:export-ydpi="90"
         inkscape:export-xdpi="90"
         inkscape:export-filename="C:\Users\Frederik Simon\Documents\Studium\Game Development 101\DraCo\Assets\Sprites\Player\player_walk.png"
         transform="matrix(0.07114135,0,0,0.07421772,1247.2767,419.41676)"
         d="m 287.89348,259.89752 a 97.479721,93.43911 0 1 1 -194.959444,0 97.479721,93.43911 0 1 1 194.959444,0 z"
         sodipodi:ry="93.43911"
         sodipodi:rx="97.479721"
         sodipodi:cy="259.89752"
         sodipodi:cx="190.41376"
         id="path3707"
         style="fill:#000000;fill-opacity:1;fill-rule:nonzero;stroke:none"
         sodipodi:type="arc" />
      <path
         inkscape:export-ydpi="90"
         inkscape:export-xdpi="90"
         inkscape:export-filename="C:\Users\Frederik Simon\Documents\Studium\Game Development 101\DraCo\Assets\Sprites\Player\player_walk.png"
         sodipodi:type="arc"
         style="fill:none;stroke:#000000;stroke-width:8.26810646;stroke-miterlimit:4;stroke-dasharray:none"
         id="path3709"
         sodipodi:cx="190.41376"
         sodipodi:cy="259.89752"
         sodipodi:rx="97.479721"
         sodipodi:ry="93.43911"
         d="m 287.89348,259.89752 a 97.479721,93.43911 0 1 1 -194.959444,0 97.479721,93.43911 0 1 1 194.959444,0 z"
         transform="matrix(0.10191891,0,0,0.15326302,1243.8691,396.04833)" />
      <path
         inkscape:export-ydpi="90"
         inkscape:export-xdpi="90"
         inkscape:export-filename="C:\Users\Frederik Simon\Documents\Studium\Game Development 101\DraCo\Assets\Sprites\Player\player_walk.png"
         style="fill:none;stroke:#000000;stroke-width:3.1219511;stroke-linecap:butt;stroke-linejoin:miter;stroke-miterlimit:4;stroke-opacity:1;stroke-dasharray:none"
         d="m 1231.8542,488.97766 c 0,0 14.2718,8.02787 31.2195,0.89198 16.9478,-7.13589 14.2718,-9.81184 14.2718,-9.81184"
         id="path3711"
         inkscape:connector-curvature="0" />
    </g>
    <g
       id="g4409"
       inkscape:export-filename="C:\Users\Frederik Simon\Documents\Studium\GameDevelopment 101\DraCo\Assets\Sprites\Player\PlayerIdle\player_idle_01.png"
       inkscape:export-xdpi="90"
       inkscape:export-ydpi="90">
      <g
         id="g4257"
         transform="matrix(1.1739295,0,0,1.1739295,-473.5971,348.79512)"
         inkscape:export-filename="C:\Users\Frederik Simon\Documents\Studium\Game Development 101\DraCo\Assets\Sprites\Player\player_walk.png"
         inkscape:export-xdpi="90"
         inkscape:export-ydpi="90">
        <ellipse
           d="m 287.89348,259.89752 a 97.479721,93.43911 0 0 1 -97.47972,93.43911 97.479721,93.43911 0 0 1 -97.479724,-93.43911 97.479721,93.43911 0 0 1 97.479724,-93.43911 97.479721,93.43911 0 0 1 97.47972,93.43911 z"
           transform="matrix(0.54563198,0,0,0.5692269,81.462058,151.35792)"
           id="path4259"
           style="fill:none;stroke:#000000;stroke-width:4.77190161;stroke-miterlimit:4;stroke-dasharray:none"
           cx="190.41376"
           cy="259.89752"
           rx="97.479721"
           ry="93.43911" />
        <ellipse
           d="m 287.89348,259.89752 a 97.479721,93.43911 0 0 1 -97.47972,93.43911 97.479721,93.43911 0 0 1 -97.479724,-93.43911 97.479721,93.43911 0 0 1 97.479724,-93.43911 97.479721,93.43911 0 0 1 97.47972,93.43911 z"
           style="fill:#000000;fill-opacity:1;fill-rule:nonzero;stroke:none"
           id="path4261"
           transform="matrix(0.06060104,0,0,0.06322162,152.86468,264.5999)"
           cx="190.41376"
           cy="259.89752"
           rx="97.479721"
           ry="93.43911" />
        <ellipse
           d="m 287.89348,259.89752 a 97.479721,93.43911 0 0 1 -97.47972,93.43911 97.479721,93.43911 0 0 1 -97.479724,-93.43911 97.479721,93.43911 0 0 1 97.479724,-93.43911 97.479721,93.43911 0 0 1 97.47972,93.43911 z"
           transform="matrix(0.0868186,0,0,0.13055555,149.96202,244.69374)"
           id="path4263"
           style="fill:none;stroke:#000000;stroke-width:8.26810646;stroke-miterlimit:4;stroke-dasharray:none"
           cx="190.41376"
           cy="259.89752"
           rx="97.479721"
           ry="93.43911" />
        <path
           inkscape:connector-curvature="0"
           id="path4265"
           d="m 139.72724,323.85465 c 0,0 12.15726,6.83846 26.59402,0.75983 14.43675,-6.07864 12.15727,-8.35812 12.15727,-8.35812"
           style="fill:none;stroke:#000000;stroke-width:2.65940261;stroke-linecap:butt;stroke-linejoin:miter;stroke-miterlimit:4;stroke-dasharray:none;stroke-opacity:1" />
      </g>
      <path
         style="fill:#000000;fill-opacity:1;fill-rule:nonzero;stroke:#999999;stroke-width:1.19047308"
         d="m -221.9186,774.10186 c 0,5.81137 -7.58389,10.5224 -16.93912,10.5224 -9.35521,0 -16.93912,-4.71103 -16.93912,-10.5224 0,-5.81135 8.30088,-3.15283 17.55884,-5.11086 8.52892,-1.80385 16.3194,-0.70049 16.3194,5.11086 z"
         id="path4267"
         inkscape:connector-curvature="0"
         sodipodi:nodetypes="sssss"
         inkscape:export-filename="C:\Users\Frederik Simon\Documents\Studium\Game Development 101\DraCo\Assets\Sprites\Player\player_walk.png"
         inkscape:export-xdpi="90"
         inkscape:export-ydpi="90" />
      <path
         sodipodi:nodetypes="sssss"
         inkscape:connector-curvature="0"
         id="path4269"
         d="m -254.33894,773.50058 c 0,5.81136 -7.5839,10.5224 -16.93913,10.5224 -9.35521,0 -16.93912,-4.71104 -16.93912,-10.5224 0,-5.81136 8.30089,-3.15284 17.55885,-5.11087 8.52892,-1.80384 16.3194,-0.70049 16.3194,5.11087 z"
         style="fill:#000000;fill-opacity:1;fill-rule:nonzero;stroke:#999999;stroke-width:1.19047308"
         inkscape:export-filename="C:\Users\Frederik Simon\Documents\Studium\Game Development 101\DraCo\Assets\Sprites\Player\player_walk.png"
         inkscape:export-xdpi="90"
         inkscape:export-ydpi="90" />
    </g>
    <g
       id="g4418"
       inkscape:export-filename="C:\Users\Frederik Simon\Documents\Studium\GameDevelopment 101\DraCo\Assets\Sprites\Player\PlayerIdle\player_idle_02.png"
       inkscape:export-xdpi="90"
       inkscape:export-ydpi="90">
      <circle
         r="62.439026"
         id="ellipse4281"
         style="fill:none;stroke:#000000;stroke-width:3.12195134;stroke-miterlimit:4;stroke-dasharray:none"
         cx="-116"
         cy="700.15057" />
      <ellipse
         style="fill:#000000;fill-opacity:1;fill-rule:nonzero;stroke:none"
         id="ellipse4283"
         cx="-140.59845"
         cy="680.70575"
         rx="6.9348388"
         ry="6.9348378" />
      <ellipse
         id="ellipse4285"
         style="fill:none;stroke:#000000;stroke-width:1.0333612;stroke-miterlimit:4;stroke-dasharray:none"
         cx="-138.14549"
         cy="675.88098"
         rx="9.9350281"
         ry="14.320759" />
      <path
         inkscape:connector-curvature="0"
         id="path4287"
         d="m -169.56717,728.97765 c 0,0 14.27177,8.02787 31.2195,0.89198 16.94773,-7.13589 14.27178,-9.81184 14.27178,-9.81184"
         style="fill:none;stroke:#000000;stroke-width:3.1219511;stroke-linecap:butt;stroke-linejoin:miter;stroke-miterlimit:4;stroke-dasharray:none;stroke-opacity:1" />
      <path
         inkscape:export-ydpi="90"
         inkscape:export-xdpi="90"
         inkscape:export-filename="C:\Users\Frederik Simon\Documents\Studium\Game Development 101\DraCo\Assets\Sprites\Player\player_walk.png"
         sodipodi:nodetypes="sssss"
         inkscape:connector-curvature="0"
         id="path4289"
         d="m -81.918598,774.10186 c 0,5.81137 -7.583897,10.5224 -16.939123,10.5224 -9.355209,0 -16.939119,-4.71103 -16.939119,-10.5224 0,-5.81135 8.30088,-3.15283 17.558844,-5.11086 8.528918,-1.80385 16.319398,-0.70049 16.319398,5.11086 z"
         style="fill:#000000;fill-opacity:1;fill-rule:nonzero;stroke:#999999;stroke-width:1.19047308" />
      <path
         inkscape:export-ydpi="90"
         inkscape:export-xdpi="90"
         inkscape:export-filename="C:\Users\Frederik Simon\Documents\Studium\Game Development 101\DraCo\Assets\Sprites\Player\player_walk.png"
         style="fill:#000000;fill-opacity:1;fill-rule:nonzero;stroke:#999999;stroke-width:1.19047308"
         d="m -114.33894,773.50058 c 0,5.81136 -7.5839,10.5224 -16.93913,10.5224 -9.35521,0 -16.93912,-4.71104 -16.93912,-10.5224 0,-5.81136 8.30089,-3.15284 17.55885,-5.11087 8.52892,-1.80384 16.3194,-0.70049 16.3194,5.11087 z"
         id="path4291"
         inkscape:connector-curvature="0"
         sodipodi:nodetypes="sssss" />
      <ellipse
         ry="14.32076"
         rx="9.9350271"
         cy="675.88098"
         cx="-138.14549"
         inkscape:export-ydpi="90"
         inkscape:export-xdpi="90"
         inkscape:export-filename="C:\Users\Frederik Simon\Documents\Studium\Game Development 101\DraCo\Assets\Sprites\Player\player_walk.png"
         style="fill:none;stroke:#000000;stroke-width:1.0333612;stroke-miterlimit:4;stroke-dasharray:none"
         id="ellipse4295" />
    </g>
    <g
       id="g4427"
       inkscape:export-filename="C:\Users\Frederik Simon\Documents\Studium\GameDevelopment 101\DraCo\Assets\Sprites\Player\PlayerIdle\player_idle_03.png"
       inkscape:export-xdpi="90"
       inkscape:export-ydpi="90">
      <circle
         r="62.439026"
         cy="700.15057"
         cx="24"
         style="fill:none;stroke:#000000;stroke-width:3.12195134;stroke-miterlimit:4;stroke-dasharray:none"
         id="ellipse4303" />
      <ellipse
         ry="6.9348378"
         rx="6.9348388"
         cy="682.70575"
         cx="1.4015487"
         id="ellipse4305"
         style="fill:#000000;fill-opacity:1;fill-rule:nonzero;stroke:none" />
      <ellipse
         ry="14.320759"
         rx="9.9350281"
         cy="675.88098"
         cx="1.8545035"
         style="fill:none;stroke:#000000;stroke-width:1.0333612;stroke-miterlimit:4;stroke-dasharray:none"
         id="ellipse4307" />
      <path
         style="fill:none;stroke:#000000;stroke-width:3.1219511;stroke-linecap:butt;stroke-linejoin:miter;stroke-miterlimit:4;stroke-dasharray:none;stroke-opacity:1"
         d="m -29.567171,728.97765 c 0,0 14.271766,8.02787 31.2195046,0.89198 16.9477264,-7.13589 14.2717774,-9.81184 14.2717774,-9.81184"
         id="path4309"
         inkscape:connector-curvature="0" />
      <path
         style="fill:#000000;fill-opacity:1;fill-rule:nonzero;stroke:#999999;stroke-width:1.19047308"
         d="m 58.081402,774.10186 c 0,5.81137 -7.583897,10.5224 -16.939123,10.5224 -9.355213,0 -16.939122,-4.71103 -16.939122,-10.5224 0,-5.81135 8.300883,-3.15283 17.558847,-5.11086 8.528918,-1.80385 16.319398,-0.70049 16.319398,5.11086 z"
         id="path4311"
         inkscape:connector-curvature="0"
         sodipodi:nodetypes="sssss"
         inkscape:export-filename="C:\Users\Frederik Simon\Documents\Studium\Game Development 101\DraCo\Assets\Sprites\Player\player_walk.png"
         inkscape:export-xdpi="90"
         inkscape:export-ydpi="90" />
      <path
         sodipodi:nodetypes="sssss"
         inkscape:connector-curvature="0"
         id="path4313"
         d="m 25.661058,773.50058 c 0,5.81136 -7.583897,10.5224 -16.939123,10.5224 -9.35521385,0 -16.9391227,-4.71104 -16.9391227,-10.5224 0,-5.81136 8.30088318,-3.15284 17.5588472,-5.11087 8.5289185,-1.80384 16.3193985,-0.70049 16.3193985,5.11087 z"
         style="fill:#000000;fill-opacity:1;fill-rule:nonzero;stroke:#999999;stroke-width:1.19047308"
         inkscape:export-filename="C:\Users\Frederik Simon\Documents\Studium\Game Development 101\DraCo\Assets\Sprites\Player\player_walk.png"
         inkscape:export-xdpi="90"
         inkscape:export-ydpi="90" />
    </g>
    <g
       id="g4435"
       inkscape:export-filename="C:\Users\Frederik Simon\Documents\Studium\GameDevelopment 101\DraCo\Assets\Sprites\Player\PlayerIdle\player_idle_04.png"
       inkscape:export-xdpi="90"
       inkscape:export-ydpi="90">
      <circle
         r="62.439026"
         id="ellipse4325"
         style="fill:none;stroke:#000000;stroke-width:3.12195134;stroke-miterlimit:4;stroke-dasharray:none"
         cx="164"
         cy="700.15057" />
      <ellipse
         style="fill:#000000;fill-opacity:1;fill-rule:nonzero;stroke:none"
         id="ellipse4327"
         cx="139.40155"
         cy="680.70575"
         rx="6.9348388"
         ry="6.9348378" />
      <ellipse
         id="ellipse4329"
         style="fill:none;stroke:#000000;stroke-width:1.0333612;stroke-miterlimit:4;stroke-dasharray:none"
         cx="141.85451"
         cy="675.88098"
         rx="9.9350281"
         ry="14.320759" />
      <path
         inkscape:connector-curvature="0"
         id="path4331"
         d="m 110.43283,728.97765 c 0,0 14.27177,8.02787 31.2195,0.89198 16.94773,-7.13589 14.27178,-9.81184 14.27178,-9.81184"
         style="fill:none;stroke:#000000;stroke-width:3.1219511;stroke-linecap:butt;stroke-linejoin:miter;stroke-miterlimit:4;stroke-dasharray:none;stroke-opacity:1" />
      <path
         inkscape:export-ydpi="90"
         inkscape:export-xdpi="90"
         inkscape:export-filename="C:\Users\Frederik Simon\Documents\Studium\Game Development 101\DraCo\Assets\Sprites\Player\player_walk.png"
         sodipodi:nodetypes="sssss"
         inkscape:connector-curvature="0"
         id="path4333"
         d="m 198.0814,774.10186 c 0,5.81137 -7.58389,10.5224 -16.93912,10.5224 -9.35521,0 -16.93912,-4.71103 -16.93912,-10.5224 0,-5.81135 8.30088,-3.15283 17.55884,-5.11086 8.52892,-1.80385 16.3194,-0.70049 16.3194,5.11086 z"
         style="fill:#000000;fill-opacity:1;fill-rule:nonzero;stroke:#999999;stroke-width:1.19047308" />
      <path
         inkscape:export-ydpi="90"
         inkscape:export-xdpi="90"
         inkscape:export-filename="C:\Users\Frederik Simon\Documents\Studium\Game Development 101\DraCo\Assets\Sprites\Player\player_walk.png"
         style="fill:#000000;fill-opacity:1;fill-rule:nonzero;stroke:#999999;stroke-width:1.19047308"
         d="m 165.66106,773.50058 c 0,5.81136 -7.5839,10.5224 -16.93913,10.5224 -9.35521,0 -16.93912,-4.71104 -16.93912,-10.5224 0,-5.81136 8.30089,-3.15284 17.55885,-5.11087 8.52892,-1.80384 16.3194,-0.70049 16.3194,5.11087 z"
         id="path4335"
         inkscape:connector-curvature="0"
         sodipodi:nodetypes="sssss" />
    </g>
    <g
       id="g4443"
       inkscape:export-filename="C:\Users\Frederik Simon\Documents\Studium\GameDevelopment 101\DraCo\Assets\Sprites\Player\PlayerIdle\player_idle_05.png"
       inkscape:export-xdpi="90"
       inkscape:export-ydpi="90">
      <g
         inkscape:export-ydpi="90"
         inkscape:export-xdpi="90"
         inkscape:export-filename="C:\Users\Frederik Simon\Documents\Studium\Game Development 101\DraCo\Assets\Sprites\Player\player_walk.png"
         transform="matrix(1.1739295,0,0,1.1739295,86.4029,348.79512)"
         id="g4395">
        <ellipse
           d="m 287.89348,259.89752 a 97.479721,93.43911 0 0 1 -97.47972,93.43911 97.479721,93.43911 0 0 1 -97.479724,-93.43911 97.479721,93.43911 0 0 1 97.479724,-93.43911 97.479721,93.43911 0 0 1 97.47972,93.43911 z"
           ry="93.43911"
           rx="97.479721"
           cy="259.89752"
           cx="190.41376"
           style="fill:none;stroke:#000000;stroke-width:4.77190161;stroke-miterlimit:4;stroke-dasharray:none"
           id="ellipse4397"
           transform="matrix(0.54563198,0,0,0.5692269,81.462058,151.35792)" />
        <ellipse
           d="m 287.89348,259.89752 a 97.479721,93.43911 0 0 1 -97.47972,93.43911 97.479721,93.43911 0 0 1 -97.479724,-93.43911 97.479721,93.43911 0 0 1 97.479724,-93.43911 97.479721,93.43911 0 0 1 97.47972,93.43911 z"
           ry="93.43911"
           rx="97.479721"
           cy="259.89752"
           cx="190.41376"
           transform="matrix(0.06060104,0,0,0.06322162,152.86468,264.5999)"
           id="ellipse4399"
           style="fill:#000000;fill-opacity:1;fill-rule:nonzero;stroke:none" />
        <ellipse
           d="m 287.89348,259.89752 a 97.479721,93.43911 0 0 1 -97.47972,93.43911 97.479721,93.43911 0 0 1 -97.479724,-93.43911 97.479721,93.43911 0 0 1 97.479724,-93.43911 97.479721,93.43911 0 0 1 97.47972,93.43911 z"
           ry="93.43911"
           rx="97.479721"
           cy="259.89752"
           cx="190.41376"
           style="fill:none;stroke:#000000;stroke-width:8.26810646;stroke-miterlimit:4;stroke-dasharray:none"
           id="ellipse4401"
           transform="matrix(0.0868186,0,0,0.13055555,149.96202,244.69374)" />
        <path
           style="fill:none;stroke:#000000;stroke-width:2.65940261;stroke-linecap:butt;stroke-linejoin:miter;stroke-miterlimit:4;stroke-dasharray:none;stroke-opacity:1"
           d="m 139.72724,323.85465 c 0,0 12.15726,6.83846 26.59402,0.75983 14.43675,-6.07864 12.15727,-8.35812 12.15727,-8.35812"
           id="path4403"
           inkscape:connector-curvature="0" />
      </g>
      <path
         inkscape:export-ydpi="90"
         inkscape:export-xdpi="90"
         inkscape:export-filename="C:\Users\Frederik Simon\Documents\Studium\Game Development 101\DraCo\Assets\Sprites\Player\player_walk.png"
         sodipodi:nodetypes="sssss"
         inkscape:connector-curvature="0"
         id="path4405"
         d="m 338.0814,774.10186 c 0,5.81137 -7.58389,10.5224 -16.93912,10.5224 -9.35521,0 -16.93912,-4.71103 -16.93912,-10.5224 0,-5.81135 8.30088,-3.15283 17.55884,-5.11086 8.52892,-1.80385 16.3194,-0.70049 16.3194,5.11086 z"
         style="fill:#000000;fill-opacity:1;fill-rule:nonzero;stroke:#999999;stroke-width:1.19047308" />
      <path
         inkscape:export-ydpi="90"
         inkscape:export-xdpi="90"
         inkscape:export-filename="C:\Users\Frederik Simon\Documents\Studium\Game Development 101\DraCo\Assets\Sprites\Player\player_walk.png"
         style="fill:#000000;fill-opacity:1;fill-rule:nonzero;stroke:#999999;stroke-width:1.19047308"
         d="m 305.66106,773.50058 c 0,5.81136 -7.5839,10.5224 -16.93913,10.5224 -9.35521,0 -16.93912,-4.71104 -16.93912,-10.5224 0,-5.81136 8.30089,-3.15284 17.55885,-5.11087 8.52892,-1.80384 16.3194,-0.70049 16.3194,5.11087 z"
         id="path4407"
         inkscape:connector-curvature="0"
         sodipodi:nodetypes="sssss" />
    </g>
  </g>
</svg>
