player_walk_01 = 0 0 128 149
player_walk_02 = 128 0 128 149
player_walk_03 = 256 0 128 149
player_walk_04 = 384 0 128 149
player_walk_05 = 0 149 128 149
player_walk_06 = 128 149 128 149
player_walk_07 = 0 298 128 149
player_walk_08 = 256 149 128 149
player_walk_09 = 128 298 128 149
player_walk_10 = 384 149 128 149
player_walk_11 = 256 298 128 149
